gname,csize,estimate,time
loc-gowalla_edges,5,14570900.0,2073532
amazon0601,5,3606470.0,1437860
com-youtube,5,7211950.0,3919721
web-Google,5,105110000.0,5557571
cit-Patents,5,3039640.0,6978506
soc-pokec-relationships,5,52831600.0,28415774
