,,,,,,,,,,,,,
,,,,,5,5,5,7,7,7,10,10,10
graph,vertices,edges,degen,max degree,estimate,error,time,estimate,error,time,estimate,error,time
loc-gowalla,1.97E+05,9.50E+05,51,14730,1.46E+07,0.20,2,4.78E+07,0.36,2,1.08E+08,1.63,3
web-Stanford,2.82E+05,1.99E+06,71,38625,6.21E+08,-,20,3.47E+10,-,43,6.63E+12,-,52
amazon0601,4.03E+05,4.89E+06,10,2752,3.64E+06,0.93,1,9.98E+05,0.95,1,9.77E+03,0.01,1
com-youtube,1.13E+06,2.99E+06,51,28754,7.29E+06,1.08,7,7.85E+06,1.38,8,1.83E+06,0.20,8
web-Google,8.76E+05,4.32E+06,44,6332,1.05E+08,0.10,2,6.06E+08,0.09,2,1.29E+10,0.82,2
web-BerkStan,6.85E+05,6.65E+06,201,84230,2.19E+10,-,101,9.30E+12,-,214,5.79E+16,-,262
as-skitter,1.70E+06,1.11E+07,111,35455,1.17E+09,-,153,7.30E+10,-,164,2.28E+13,-,180
cit-Patents,3.77E+06,1.65E+07,64,793,3.05E+06,0.34,10,1.89E+06,0.83,9,2.55E+03,4.46,9
soc-pokec,1.63E+06,2.23E+07,47,14854,5.29E+07,0.13,42,8.43E+07,0.48,45,1.98E+08,0.01,45
com-lj,4.00E+06,3.47E+07,360,14815,2.46E+11,-,106,5.14E+14,-,153,1.47E+19,-,252
com-orkut,3.07E+06,1.17E+08,253,33313,1.57E+10,-,3119,3.61E+11,-,5587,3.14E+13,-,9298