graph,CC,ES,GRAFT,TS
loc-gowalla_edges,2,2,201,2
web-Stanford,193,4300,4300,43
amazon0601,1,1,1,1
com-youtube,2,5,708,7
web-Google,11,21,218,2
web-BerkStan,21400,5822,21400,214
as-skitter,466,2877,10800,163
cit-Patents,5,6,13,9
soc-pokec-relationships,25,20,124,42
com-lj,15200,15200,15200,152
web-orkut,4237,815,18000,5586